0 s
1 B
2 w
3 B
4 h
5 a
6 t
7 L
8 p
9 k
A t
B B
C h
D a
E a
F C
G s
H f
I m
J a
K m
L s
M a
N i
O m
P b
Q h
R W
S t
T f
U i
V a
W t
X c
Y w
Z b
a 0
b 3
c 6
d 9
e c
f y
g c
h C
i p
j e
k d
l t
m i
n w
o S
p b
q T
r h
s C
t I
u s
v a
w A
x C
y H
z o
